Projeto exemplo/Projeto/simulation/qsim/BitTimingCAN.msim.vcd
$comment
	File created using the following command:
		vcd file BitTimingCAN.msim.vcd -direction
$end
$date
	Mon May 01 15:52:55 2017
$end
$version
	ModelSim Version 10.5b
$end
$timescale
	1ps
$end

$scope module first_counter_vlg_vec_tst $end
$var reg 1 ! clock $end
$var reg 1 " enable $end
$var reg 1 # reset $end
$var wire 1 $ counter_out [3] $end
$var wire 1 % counter_out [2] $end
$var wire 1 & counter_out [1] $end
$var wire 1 ' counter_out [0] $end

$scope module i1 $end
$var wire 1 ( gnd $end
$var wire 1 ) vcc $end
$var wire 1 * unknown $end
$var tri1 1 + devclrn $end
$var tri1 1 , devpor $end
$var tri1 1 - devoe $end
$var wire 1 . counter_out[0]~output_o $end
$var wire 1 / counter_out[1]~output_o $end
$var wire 1 0 counter_out[2]~output_o $end
$var wire 1 1 counter_out[3]~output_o $end
$var wire 1 2 clock~input_o $end
$var wire 1 3 clock~inputclkctrl_outclk $end
$var wire 1 4 reset~input_o $end
$var wire 1 5 counter_out~0_combout $end
$var wire 1 6 enable~input_o $end
$var wire 1 7 counter_out[0]~1_combout $end
$var wire 1 8 counter_out[0]~reg0_q $end
$var wire 1 9 counter_out~2_combout $end
$var wire 1 : counter_out[1]~reg0_q $end
$var wire 1 ; counter_out~3_combout $end
$var wire 1 < counter_out[2]~reg0_q $end
$var wire 1 = counter_out~4_combout $end
$var wire 1 > counter_out~5_combout $end
$var wire 1 ? counter_out[3]~reg0_q $end
$upscope $end
$upscope $end
$enddefinitions $end
#0
$dumpvars
0!
0"
1#
0'
0&
0%
0$
0(
1)
x*
1+
1,
1-
0.
0/
00
01
02
03
14
05
06
17
08
09
0:
0;
0<
1=
0>
0?
$end
#5000
1!
12
13
#10000
0!
02
03
#15000
1!
12
13
#20000
0!
02
03
#25000
1!
12
13
#30000
0!
02
03
#35000
1!
12
13
#40000
0!
02
03
#45000
1!
12
13
#50000
0!
02
03
#55000
1!
12
13
#60000
0!
02
03
#65000
1!
12
13
#70000
0!
02
03
#75000
1!
12
13
#80000
0#
0!
04
02
03
07
15
#85000
1!
12
13
#90000
0!
02
03
#95000
1!
12
13
#100000
0!
02
03
#105000
1!
12
13
#110000
0!
02
03
#115000
1!
12
13
#120000
1"
0!
16
02
03
17
#125000
1!
12
13
18
1.
1'
19
05
#130000
0!
02
03
#135000
1!
12
13
1:
08
0.
1/
1&
0'
15
#140000
0!
02
03
#145000
1!
12
13
18
1.
1'
1;
09
05
#150000
0!
02
03
#155000
1!
12
13
1<
0:
08
0.
0/
10
1%
0&
0'
15
#160000
0!
02
03
#165000
1!
12
13
18
1.
0=
1'
19
05
#170000
0!
02
03
#175000
1!
12
13
1:
08
0.
1/
1=
1&
0'
1>
15
0>
#180000
0!
02
03
#185000
1!
12
13
18
1.
0=
1'
0;
09
05
1>
#190000
0!
02
03
#195000
1!
12
13
1?
0<
0:
08
0.
0/
00
11
1=
1$
0%
0&
0'
15
#200000
0!
02
03
#205000
1!
12
13
18
1.
1'
19
05
#210000
0!
02
03
#215000
1!
12
13
1:
08
0.
1/
1&
0'
15
#220000
0!
02
03
#225000
1!
12
13
18
1.
1'
1;
09
05
#230000
0!
02
03
#235000
1!
12
13
1<
0:
08
0.
0/
10
1%
0&
0'
15
#240000
0!
02
03
#245000
1!
12
13
18
1.
0=
1'
19
05
#250000
0!
02
03
#255000
1!
12
13
1:
08
0.
1/
1=
1&
0'
0>
15
1>
#260000
0!
02
03
#265000
1!
12
13
18
1.
0=
1'
0;
09
05
0>
#270000
0!
02
03
#275000
1!
12
13
0?
0<
0:
08
0.
0/
00
01
1=
0$
0%
0&
0'
15
#280000
0!
02
03
#285000
1!
12
13
18
1.
1'
19
05
#290000
0!
02
03
#295000
1!
12
13
1:
08
0.
1/
1&
0'
15
#300000
0!
02
03
#305000
1!
12
13
18
1.
1'
1;
09
05
#310000
0!
02
03
#315000
1!
12
13
1<
0:
08
0.
0/
10
1%
0&
0'
15
#320000
0!
02
03
#325000
1!
12
13
18
1.
0=
1'
19
05
#330000
0!
02
03
#335000
1!
12
13
1:
08
0.
1/
1=
1&
0'
1>
15
0>
#340000
0!
02
03
#345000
1!
12
13
18
1.
0=
1'
0;
09
05
1>
#350000
0!
02
03
#355000
1!
12
13
1?
0<
0:
08
0.
0/
00
11
1=
1$
0%
0&
0'
15
#360000
0!
02
03
#365000
1!
12
13
18
1.
1'
19
05
#370000
0!
02
03
#375000
1!
12
13
1:
08
0.
1/
1&
0'
15
#380000
0!
02
03
#385000
1!
12
13
18
1.
1'
1;
09
05
#390000
0!
02
03
#395000
1!
12
13
1<
0:
08
0.
0/
10
1%
0&
0'
15
#400000
0!
02
03
#405000
1!
12
13
18
1.
0=
1'
19
05
#410000
0!
02
03
#415000
1!
12
13
1:
08
0.
1/
1=
1&
0'
0>
15
1>
#420000
0!
02
03
#425000
1!
12
13
18
1.
0=
1'
0;
09
05
0>
#430000
0!
02
03
#435000
1!
12
13
0?
0<
0:
08
0.
0/
00
01
1=
0$
0%
0&
0'
15
#440000
0!
02
03
#445000
1!
12
13
18
1.
1'
19
05
#450000
0!
02
03
#455000
1!
12
13
1:
08
0.
1/
1&
0'
15
#460000
0!
02
03
#465000
1!
12
13
18
1.
1'
1;
09
05
#470000
0!
02
03
#475000
1!
12
13
1<
0:
08
0.
0/
10
1%
0&
0'
15
#480000
0!
02
03
#485000
1!
12
13
18
1.
0=
1'
19
05
#490000
0!
02
03
#495000
1!
12
13
1:
08
0.
1/
1=
1&
0'
1>
15
0>
#500000
0!
02
03
#505000
1!
12
13
18
1.
0=
1'
0;
09
05
1>
#510000
0!
02
03
#515000
1!
12
13
1?
0<
0:
08
0.
0/
00
11
1=
1$
0%
0&
0'
15
#520000
0!
02
03
#525000
1!
12
13
18
1.
1'
19
05
#530000
0!
02
03
#535000
1!
12
13
1:
08
0.
1/
1&
0'
15
#540000
0!
02
03
#545000
1!
12
13
18
1.
1'
1;
09
05
#550000
0!
02
03
#555000
1!
12
13
1<
0:
08
0.
0/
10
1%
0&
0'
15
#560000
0!
02
03
#565000
1!
12
13
18
1.
0=
1'
19
05
#570000
0!
02
03
#575000
1!
12
13
1:
08
0.
1/
1=
1&
0'
0>
15
1>
#580000
0!
02
03
#585000
1!
12
13
18
1.
0=
1'
0;
09
05
0>
#590000
0!
02
03
#595000
1!
12
13
0?
0<
0:
08
0.
0/
00
01
1=
0$
0%
0&
0'
15
#600000
0!
02
03
#605000
1!
12
13
18
1.
1'
19
05
#610000
0!
02
03
#615000
1!
12
13
1:
08
0.
1/
1&
0'
15
#620000
0!
02
03
#625000
1!
12
13
18
1.
1'
1;
09
05
#630000
0!
02
03
#635000
1!
12
13
1<
0:
08
0.
0/
10
1%
0&
0'
15
#640000
0!
02
03
#645000
1!
12
13
18
1.
0=
1'
19
05
#650000
0!
02
03
#655000
1!
12
13
1:
08
0.
1/
1=
1&
0'
1>
15
0>
#660000
0!
02
03
#665000
1!
12
13
18
1.
0=
1'
0;
09
05
1>
#670000
0!
02
03
#675000
1!
12
13
1?
0<
0:
08
0.
0/
00
11
1=
1$
0%
0&
0'
15
#680000
0!
02
03
#685000
1!
12
13
18
1.
1'
19
05
#690000
0!
02
03
#695000
1!
12
13
1:
08
0.
1/
1&
0'
15
#700000
0!
02
03
#705000
1!
12
13
18
1.
1'
1;
09
05
#710000
0!
02
03
#715000
1!
12
13
1<
0:
08
0.
0/
10
1%
0&
0'
15
#720000
0!
02
03
#725000
1!
12
13
18
1.
0=
1'
19
05
#730000
0!
02
03
#735000
1!
12
13
1:
08
0.
1/
1=
1&
0'
0>
15
1>
#740000
0!
02
03
#745000
1!
12
13
18
1.
0=
1'
0;
09
05
0>
#750000
0!
02
03
#755000
1!
12
13
0?
0<
0:
08
0.
0/
00
01
1=
0$
0%
0&
0'
15
#760000
0!
02
03
#765000
1!
12
13
18
1.
1'
19
05
#770000
0!
02
03
#775000
1!
12
13
1:
08
0.
1/
1&
0'
15
#780000
0!
02
03
#785000
1!
12
13
18
1.
1'
1;
09
05
#790000
0!
02
03
#795000
1!
12
13
1<
0:
08
0.
0/
10
1%
0&
0'
15
#800000
0!
02
03
#805000
1!
12
13
18
1.
0=
1'
19
05
#810000
0!
02
03
#815000
1!
12
13
1:
08
0.
1/
1=
1&
0'
1>
15
0>
#820000
0!
02
03
#825000
1!
12
13
18
1.
0=
1'
0;
09
05
1>
#830000
0!
02
03
#835000
1!
12
13
1?
0<
0:
08
0.
0/
00
11
1=
1$
0%
0&
0'
15
#840000
0!
02
03
#845000
1!
12
13
18
1.
1'
19
05
#850000
0!
02
03
#855000
1!
12
13
1:
08
0.
1/
1&
0'
15
#860000
0!
02
03
#865000
1!
12
13
18
1.
1'
1;
09
05
#870000
0!
02
03
#875000
1!
12
13
1<
0:
08
0.
0/
10
1%
0&
0'
15
#880000
0!
02
03
#885000
1!
12
13
18
1.
0=
1'
19
05
#890000
0!
02
03
#895000
1!
12
13
1:
08
0.
1/
1=
1&
0'
0>
15
1>
#900000
0!
02
03
#905000
1!
12
13
18
1.
0=
1'
0;
09
05
0>
#910000
0!
02
03
#915000
1!
12
13
0?
0<
0:
08
0.
0/
00
01
1=
0$
0%
0&
0'
15
#920000
0!
02
03
#925000
1!
12
13
18
1.
1'
19
05
#930000
0!
02
03
#935000
1!
12
13
1:
08
0.
1/
1&
0'
15
#940000
0!
02
03
#945000
1!
12
13
18
1.
1'
1;
09
05
#950000
0!
02
03
#955000
1!
12
13
1<
0:
08
0.
0/
10
1%
0&
0'
15
#960000
0!
02
03
#965000
1!
12
13
18
1.
0=
1'
19
05
#970000
0!
02
03
#975000
1!
12
13
1:
08
0.
1/
1=
1&
0'
1>
15
0>
#980000
0!
02
03
#985000
1!
12
13
18
1.
0=
1'
0;
09
05
1>
#990000
0"
0!
06
02
03
07
#995000
1!
12
13
